* Extracted by KLayout
.INCLUDE 'models.cir'

.SUBCKT TOP C2 C1 VSS DOWN SUBSTRATE
M$1 \$3 DOWN VSS SUBSTRATE NMOS L=0.4U W=50U AS=8.7P AD=8.7P PS=61.74U PD=61.74U
X$6 C2 \$3 SUBSTRATE MOSCAPN PARAMS: W=14u L=17.2u N=2
X$8 C1 \$3 SUBSTRATE MOSCAPN PARAMS: W=24u L=17.2u N=2
.ENDS TOP
